.thunderbird -> /home/bsp/4Tdata/thunderbird_datas/v240514_thunderbird/

Documents -> /media/4Tdata/homeDocs/Documents/

for win10 gpt
/home/bsp/2tdata/win10_1/win10

UUID=3f2ee9bc-1dde-4075-ba29-8d6e2118cc5d /media/2tdata	ext4	defaults	0	 2
UUID=f096d0fb-40b5-442b-9a68-90b74a7c98a5 /media/6tdata	ext4	defaults	0	 2
UUID=6a690132-a4ac-462d-98dd-9702d05c67aa /media/8tdata	ext4	defaults	0	 2
UUID=2fb1512e-1cea-4641-9bc5-e2ff45829e79 /media/4tdata	ext4	defaults	0	 2
curlftpfs#test:123456@192.168.6.253/ /media/6tdata/cur_images/server_ftp/nv1 fuse rw,uid=1000,gid=1000,allow_other 0 0

